[gd_scene load_steps=5 format=2]

[sub_resource type="CubeMesh" id=1]

[sub_resource type="SpatialMaterial" id=2]
albedo_color = Color( 0.392157, 0.862745, 0.321569, 1 )
roughness = 0.0
emission_enabled = true
emission = Color( 0.392157, 0.862745, 0.321569, 1 )
emission_energy = 1.0
emission_operator = 0
emission_on_uv2 = false

[sub_resource type="SpatialMaterial" id=3]
flags_transparent = true
albedo_color = Color( 0.839216, 0.368627, 0.827451, 1 )
roughness = 0.0
emission_enabled = true
emission = Color( 0.839216, 0.368627, 0.827451, 1 )
emission_energy = 1.0
emission_operator = 0
emission_on_uv2 = false

[sub_resource type="SpatialMaterial" id=4]
flags_transparent = true
albedo_color = Color( 0.909804, 0.32549, 0.533333, 1 )
roughness = 0.0
emission_enabled = true
emission = Color( 1, 0, 0, 1 )
emission_energy = 1.0
emission_operator = 0
emission_on_uv2 = false

[node name="Axes" type="Spatial"]

[node name="y_axis" type="MeshInstance" parent="."]
transform = Transform( 0.00353553, -0.00353553, 3.09086e-008, 0, -2.18557e-010, -1, 0.00353553, 0.00353553, -3.09086e-008, 0, 1, 0 )
mesh = SubResource( 1 )
material/0 = SubResource( 2 )

[node name="z_axis" type="MeshInstance" parent="."]
transform = Transform( 0.00353553, -0.00353553, 0, 0.00353553, 0.00353553, 0, 0, 0, 1, 0, 0, 1 )
mesh = SubResource( 1 )
material/0 = SubResource( 3 )

[node name="x_axis" type="MeshInstance" parent="."]
transform = Transform( -1.54543e-010, 1.54543e-010, 1, 0.00353553, 0.00353553, 0, -0.00353553, 0.00353553, -4.37114e-008, 1, 0, 0 )
mesh = SubResource( 1 )
material/0 = SubResource( 4 )

